[gd_scene load_steps=4 format=2]

[ext_resource path="res://Characters/Character.gd" type="Script" id=1]
[ext_resource path="res://Characters/Witch/WitchStates.gd" type="Script" id=2]

[sub_resource type="RectangleShape2D" id=1]
extents = Vector2( 8.322, 14.365 )

[node name="Witch" type="KinematicBody2D"]
collision_mask = 0
script = ExtResource( 1 )

[node name="CollisionShape2D" type="CollisionShape2D" parent="."]
position = Vector2( 0, -14.615 )
shape = SubResource( 1 )

[node name="States" type="Node" parent="."]
script = ExtResource( 2 )
